[2021-04-27 09:29:05.342] [remoteagent] [info] 

*
* Visual Studio Code Server
*
* Reminder: You may only use this software with Visual Studio family products,
* as described in the license https://aka.ms/vscode-remote/license
*


[2021-04-27 09:29:05.342] [remoteagent] [info] Extension host agent started.
[2021-04-27 09:29:05.613] [remoteagent] [info] [::ffff:127.0.0.1][1ddbec60][ManagementConnection] New connection established.
[2021-04-27 09:29:05.620] [remoteagent] [info] [::ffff:127.0.0.1][1558e1eb][ExtensionHostConnection] New connection established.
[2021-04-27 09:29:06.558] [remoteagent] [info] [::ffff:127.0.0.1][1558e1eb][ExtensionHostConnection] <274> Launched Extension Host Process.
[2021-04-27 09:40:54.837] [remoteagent] [info] [::ffff:127.0.0.1][1ddbec60][ManagementConnection] The client has disconnected gracefully, so the connection will be disposed.
[2021-04-27 09:40:55.895] [remoteagent] [info] [::ffff:127.0.0.1][1558e1eb][ExtensionHostConnection] <274> Extension Host Process exited with code: 0, signal: null.
[2021-04-27 09:40:55.896] [remoteagent] [info] Last EH closed, waiting before shutting down
